…
    ## data/austin_craigslist.csv       data/boston_craigslist.csv       
    ## data/chicago_craigslist.csv      data/denver_craigslist.csv       
    ## data/newyork_craigslist.csv      data/portland_craigslist.csv     
    ## data/seattle_craigslist.csv      data/sfbay_craigslist.csv        
    ## data/washingtondc_craigslist.csv

``` r
# Use map_dfr and read_csv together to combine all files into one dataframe
appended_files <- file_source |> 
  map_dfr(read_csv, .id = 'filename')

appended_files
```

    ## # A tibble: 26,299 × 8
    ##    filename              date_time           town  title price  beds  sqft url  
    ##    <chr>                 <dttm>              <chr> <chr> <dbl> <dbl> <dbl> <chr>
    ##  1 data/austin_craigsli… 2022-07-09 12:21:00 (Hut… 3/2 …  1500     3  1200 http…
    ##  2 data/austin_craigsli… 2022-07-09 12:19:00 (Cen… Hous…  2400     3  1400 http…
    ##  3 data/austin_craigsli… 2022-07-09 12:15:00 (CAL… SOME…  1100     1    NA http…
    ##  4 data/austin_craigsli… 2022-07-09 12:15:00 (AUS… CRIM…  1400     2    NA http…
    ##  5 data/austin_craigsli… 2022-07-09 12:15:00 (CAL… SOME…  1100     1    NA http…
    ##  6 data/austin_craigsli… 2022-07-09 12:15:00 (#1 … BROK…  1800     3    NA http…
    ##  7 data/austin_craigsli… 2022-07-09 12:15:00 (Geo… 2-1 …  1500     2  1150 http…
    ##  8 data/austin_craigsli… 2022-07-09 12:11:00 (Bet… Grea…  1300    NA   446 http…
    ##  9 data/austin_craigsli… 2022-07-09 12:08:00 (Vis… Beau…  3230     3  2418 http…
    ## 10 data/austin_craigsli… 2022-07-09 11:56:00 (Far… Best…  1148    NA   422 http…
    ## # … with 26,289 more rows
…
apts
```

    ## # A tibble: 14,232 × 8
    ##    date_time           city   town                 title price  beds  sqft url  
    ##    <dttm>              <chr>  <chr>                <chr> <dbl> <dbl> <dbl> <chr>
    ##  1 2022-07-09 12:21:00 Austin (Hutto)              3/2 …  1500     3  1200 http…
    ##  2 2022-07-09 12:19:00 Austin (Central N. Austin)  Hous…  2400     3  1400 http…
    ##  3 2022-07-09 12:15:00 Austin (Georgetown)         2-1 …  1500     2  1150 http…
    ##  4 2022-07-09 12:08:00 Austin (Vista Oaks Round R… Beau…  3230     3  2418 http…
    ##  5 2022-07-09 11:54:00 Austin (Linea Stillwater)   Mode…  2440     4  1627 http…
    ##  6 2022-07-09 11:54:00 Austin (7011 McKinney Fall… ***O…  1274     2   943 http…
    ##  7 2022-07-09 11:53:00 Austin (Austin)             Luxu…  1784     1   860 http…
    ##  8 2022-07-09 11:50:00 Austin (Northeast Austin)   Luxu…  2266     3  1342 http…
    ##  9 2022-07-09 11:47:00 Austin (Nw Hills)           4bed…  2900     4  2150 http…
    ## 10 2022-07-09 11:47:00 Austin (Northwest Austin)   Best…  1185     1   653 http…
    ## # … with 14,222 more rows
…
``` r
# Ensures the same sample on every run
set.seed(123)
sample_data <- apts |> 
  filter(price <= price_threshold) |> 
  group_by(city) |> 
  slice_sample(n = 400) |> 
  ungroup()

sample_data
```

    ## # A tibble: 3,600 × 8
    ##    date_time           city   town                 title price  beds  sqft url  
    ##    <dttm>              <chr>  <chr>                <chr> <dbl> <dbl> <dbl> <chr>
    ##  1 2022-07-08 12:33:00 Austin (Sunset Valley Sout… "Top…  3090     2  1215 http…
    ##  2 2022-07-08 12:31:00 Austin (East 6th St East C… "Lar…  2415     1   778 http…
    ##  3 2022-07-09 00:55:00 Austin (East Austin)        "New…  1975     1   730 http…
    ##  4 2022-07-08 12:12:00 Austin (Eastside)           "\U0…  2667     1   702 http…
    ##  5 2022-07-08 20:46:00 Austin (North)              "**N…  2387     2  1079 http…
    ##  6 2022-07-07 14:56:00 Austin (Austin)             "Kee…  1499     1   613 http…
    ##  7 2022-07-07 08:25:00 Austin (North West Austin)  "Out…  1999     2  1253 http…
    ##  8 2022-07-06 18:06:00 Austin (Downtown / Lady Bi… "One…  3500     1   940 http…
    ##  9 2022-07-06 17:45:00 Austin (Round Rock)         "\U0…  1280     1   555 http…
    ## 10 2022-07-07 12:01:00 Austin (Central)            "~ A…  3662     2  1199 http…
    ## # … with 3,590 more rows
…
